{
"WWToLNuQQ"           : [49.997, false, false, "Dibosons",                  "ROOT.kViolet+2"],
"WWTo2L2Nu"           : [12.178, false, false, "Dibosons",                  "ROOT.kViolet+2"],
"TT_pow"              : [832,    false, false, "t#bar{t}",                  "ROOT.kGray+2"  ],
"DYJetsToLL_M50"      : [5765.4, false, false, "Z/#gamma*#rightarrowll",    "ROOT.kAzure+2" ],
"WJetsToLNu"          : [61527,  false, false, "W#rightarrowl#nu",          "ROOT.kRed+2"   ],
"SingleMuon_Run2016C" : [1,      true,  false, "Data",                      1   ],
"SingleMuon_Run2016D" : [1,      true,  false, "Data",                      1   ],
"SingleMuon_Run2016E" : [1,      true,  false, "Data",                      1   ],
"SingleMuon_Run2016F" : [1,      true,  false, "Data",                      1   ],
"SingleMuon_Run2016G" : [1,      true,  false, "Data",                      1   ],
"SingleMuon_Run2016H" : [1,      true,  false, "Data",                      1   ]
}






